Assignment: Temporal Diversity
…
Create a site-by-species matrix for any year of your choosing.

Create a vector of plot_type for sites in the site-by-species matrix.

Analyze alpha diversity (e.g., Shannon/Simpson) across the sites for that year.

Create a PCoA ordination of your site-by-species matrix.

Using the hypothesis testing tools you learned in the beta-diversity module, test the hypothesis that species abundances across sites vary as a factor of treatment type (i.e., plot_type).

#1. Create a site-by-species matrix for any year of your choosing.
site.by.species <- group_by(portal, year, plot_id) %>% count(species_id) %>% spread(key = species_id, value = n, fill =0)
dplyr::filter(site.by.species, year == 1984)

## Source: local data frame [24 x 50]
## Groups: year, plot_id [24]
## 
##     year plot_id    AB    AH    AS    BA    CB    CM    CQ    CS    CT
##    <int>   <int> <dbl> <dbl> <dbl> <dbl> <dbl> <dbl> <dbl> <dbl> <dbl>
## 1   1984       1     1     0     0     0     0     0     0     0     0
## 2   1984       2     1     0     0     0     0     0     1     0     0
## 3   1984       3     1     0     0     0     0     0     1     0     0
## 4   1984       4     0     0     0     0     0     0     0     0     0
## 5   1984       5     1     0     0     0     0     0     0     0     0
## 6   1984       6     2     0     0     0     0     0     0     0     0
## 7   1984       7     1     0     0     0     0     0     0     0     0
## 8   1984       8     1     0     0     0     0     0     0     0     0
## 9   1984       9     0     1     0     0     0     0     0     0     0
## 10  1984      10     0     0     0     0     0     0     0     0     0
## # ... with 14 more rows, and 39 more variables: CU <dbl>, CV <dbl>,
## #   DM <dbl>, DO <dbl>, DS <dbl>, DX <dbl>, NL <dbl>, OL <dbl>, OT <dbl>,
## #   OX <dbl>, PB <dbl>, PC <dbl>, PE <dbl>, PF <dbl>, PG <dbl>, PH <dbl>,
## #   PI <dbl>, PL <dbl>, PM <dbl>, PP <dbl>, PU <dbl>, PX <dbl>, RF <dbl>,
## #   RM <dbl>, RO <dbl>, RX <dbl>, SA <dbl>, SC <dbl>, SF <dbl>, SH <dbl>,
## #   SO <dbl>, SS <dbl>, ST <dbl>, SU <dbl>, UL <dbl>, UP <dbl>, UR <dbl>,
## #   US <dbl>, ZL <dbl>

#2. Create a vector of plot_type for sites in the site-by-species matrix.
site.by.species <- group_by(portal, year, plot_id, plot_type) %>% count(species_id) %>% spread(key = species_id, value = n, fill =0)
dplyr::filter(site.by.species, year == 1984)

## Source: local data frame [24 x 51]
## Groups: year, plot_id, plot_type [24]
## 
##     year plot_id                 plot_type    AB    AH    AS    BA    CB
##    <int>   <int>                    <fctr> <dbl> <dbl> <dbl> <dbl> <dbl>
## 1   1984       1         Spectab exclosure     1     0     0     0     0
## 2   1984       2                   Control     1     0     0     0     0
## 3   1984       3  Long-term Krat Exclosure     1     0     0     0     0
## 4   1984       4                   Control     0     0     0     0     0
## 5   1984       5          Rodent Exclosure     1     0     0     0     0
## 6   1984       6 Short-term Krat Exclosure     2     0     0     0     0
## 7   1984       7          Rodent Exclosure     1     0     0     0     0
## 8   1984       8                   Control     1     0     0     0     0
## 9   1984       9         Spectab exclosure     0     1     0     0     0
## 10  1984      10          Rodent Exclosure     0     0     0     0     0
## # ... with 14 more rows, and 43 more variables: CM <dbl>, CQ <dbl>,
## #   CS <dbl>, CT <dbl>, CU <dbl>, CV <dbl>, DM <dbl>, DO <dbl>, DS <dbl>,
## #   DX <dbl>, NL <dbl>, OL <dbl>, OT <dbl>, OX <dbl>, PB <dbl>, PC <dbl>,
## #   PE <dbl>, PF <dbl>, PG <dbl>, PH <dbl>, PI <dbl>, PL <dbl>, PM <dbl>,
## #   PP <dbl>, PU <dbl>, PX <dbl>, RF <dbl>, RM <dbl>, RO <dbl>, RX <dbl>,
## #   SA <dbl>, SC <dbl>, SF <dbl>, SH <dbl>, SO <dbl>, SS <dbl>, ST <dbl>,
## #   SU <dbl>, UL <dbl>, UP <dbl>, UR <dbl>, US <dbl>, ZL <dbl>
…
